%YAML 1.1
%TAG !u! tag:unity3d.com,2011:
--- !u!114 &11400000
MonoBehaviour:
  m_ObjectHideFlags: 0
  m_CorrespondingSourceObject: {fileID: 0}
  m_PrefabInstance: {fileID: 0}
  m_PrefabAsset: {fileID: 0}
  m_GameObject: {fileID: 0}
  m_Enabled: 1
  m_EditorHideFlags: 0
  m_Script: {fileID: 11500000, guid: a6b194f808b1af6499c93410e504af42, type: 3}
  m_Name: tile04_Atlas
  m_EditorClassIdentifier: 
  atlasFile: {fileID: 4900000, guid: 1c76437998e076d4199fb5e9b8d747f8, type: 3}
  materials:
  - {fileID: 2100000, guid: ee3b79eac2afbf64094cc72f4ad895ba, type: 2}
