tile04.png
size:2048,256
filter:Linear,Linear
pma:true
1
bounds:137,138,92,116
offsets:1,1,94,118
10
bounds:436,35,108,107
rotate:90
11
bounds:785,150,96,104
12
bounds:312,143,94,111
13
bounds:615,147,107,98
rotate:90
14
bounds:747,41,105,92
offsets:1,1,107,94
rotate:90
15
bounds:841,44,96,104
16
bounds:977,153,100,101
17
bounds:1079,153,101,87
rotate:90
18
bounds:651,39,94,106
19
bounds:939,48,73,102
2
bounds:883,152,92,102
offsets:0,0,93,102
20
bounds:715,148,68,106
21
bounds:545,36,104,108
22
bounds:49,133,86,121
23
bounds:506,146,107,108
24
bounds:1014,50,90,101
3
bounds:2,2,110,98
4
bounds:114,13,118,103
offsets:0,0,119,103
rotate:90
5
bounds:219,23,113,105
rotate:90
6
bounds:231,142,79,112
7
bounds:1106,51,100,98
rotate:90
8
bounds:408,145,96,109
9
bounds:326,31,108,110
Highlight
bounds:2,102,152,45
offsets:0,2,152,49
rotate:90
