tile03.png
size:2048,128
filter:Linear,Linear
pma:true
1
bounds:311,17,89,93
offsets:1,1,92,95
10
bounds:402,16,88,94
11
bounds:1114,18,87,92
12
bounds:759,18,88,92
13
bounds:110,3,101,107
14
bounds:849,17,87,93
offsets:1,0,88,93
15
bounds:1727,23,87,86
offsets:1,0,88,86
rotate:90
16
bounds:1203,18,87,92
offsets:1,1,88,94
17
bounds:1560,6,76,104
18
bounds:1292,18,87,92
19
bounds:1638,22,87,88
offsets:1,1,88,89
2
bounds:2,4,106,106
20
bounds:213,2,108,96
offsets:1,0,109,97
rotate:90
3
bounds:492,16,88,94
4
bounds:582,16,88,94
5
bounds:938,16,86,94
6
bounds:672,14,85,96
7
bounds:1026,16,86,94
8
bounds:1381,18,87,92
9
bounds:1470,20,88,90
Highlight
bounds:1815,65,152,45
offsets:0,2,152,49
