tile05.png
size:2048,256
filter:Linear,Linear
pma:true
1
bounds:411,51,103,93
offsets:1,2,106,96
rotate:90
10
bounds:406,156,102,94
offsets:0,1,102,96
11
bounds:205,150,99,100
offsets:1,0,100,101
12
bounds:613,156,100,94
13
bounds:974,79,68,97
14
bounds:695,54,100,93
rotate:90
15
bounds:715,158,101,92
16
bounds:107,43,102,98
offsets:0,1,102,100
rotate:90
17
bounds:510,156,101,94
18
bounds:308,54,101,95
19
bounds:2,33,103,105
2
bounds:790,55,101,91
offsets:1,1,102,92
rotate:90
20
bounds:2,140,110,99
rotate:90
21
bounds:207,49,99,99
offsets:1,1,100,100
22
bounds:506,49,91,105
3
bounds:926,178,101,72
offsets:1,1,102,74
4
bounds:883,63,89,100
offsets:1,0,91,100
5
bounds:103,147,100,103
offsets:0,1,101,104
6
bounds:883,5,56,111
offsets:0,0,56,112
rotate:90
7
bounds:599,53,101,94
offsets:1,0,102,94
rotate:90
8
bounds:818,165,106,85
9
bounds:306,151,98,99
offsets:0,1,98,100
Highlight
bounds:207,2,152,45
offsets:0,2,152,49
